{
	"nodes": [
		{
			"caption": "Raskrsnica",
			"type": "",
			"id": 0
		},
		{
			"caption": "Raskrsnica1",
			"type": "",
			"id": 42
		},
		{
			"caption": "Raskrsnica2",
			"type": "",
			"id": 61
		},
		{
			"caption": "R1",
			"type": "",
			"id": 81
		},
		{
			"caption": "R2",
			"type": "",
			"id": 82
		},
		{
			"caption": "R3",
			"type": "",
			"id": 83
		},
		{
			"caption": "R4",
			"type": "",
			"id": 84
		},
		{
			"caption": "Raskrsnica3",
			"type": "",
			"id": 85
		},
		{
			"caption": "R5",
			"type": "",
			"id": 105
		}
	],
	"edges": [
		{
			"source": 42,
			"target": 0,
			"caption": "Ulica"
		},
		{
			"source": 82,
			"target": 81,
			"caption": "St1"
		},
		{
			"source": 105,
			"target": 83,
			"caption": "St2"
		},
		{
			"source": 85,
			"target": 61,
			"caption": "Put1"
		},
		{
			"source": 83,
			"target": 82,
			"caption": "P1"
		},
		{
			"source": 84,
			"target": 81,
			"caption": "P2"
		}
	]
}
